{
    "token": "token.bin",
    "client_info":
    {
        "company_name": "Google",
        "model_name": "Spacecastgfsc100",
        "architecture_name": "armeabi-v7a",
        "device_name": "Spacecastgfsc100",
        "product_name": "Spacecastgfsc100",
        "build_info": "boundary/nitrogen6x/nitrogen6x:6.0.1/1.0.0-ga/20160530:eng/release-keys",
        "device_id": "R29vZ2xlU3BhY2VjYXN0Z2ZzYzEwMDAwMDAwMDAxAAA=",
        "os_version":  "8.0.12"
    },
    "capabilities":
    {
        "session_token": 1,
        "max_hdcp_version": "HDCP_V1",
        "oem_crypto_api_version": 9
    }
}
